{
    "admin": {
        "name": "admin",
        "admin": true,
        "salt": "oQuMD0MDxMaOd+iiTgrK7unOBRMyUoxgd90618d9Up0njb3tvXSCLvquYipiVSH/1zqEYJHaX68oioZYmPNm9ol7FGrG1XQ6r/6vi59qO6+dUWlUQv9ST/qiKUD/jGru6XZy8wLcmEJ7+iVc4vbhEmL9ZFe2eXXGeW2fPRgRwlw=",
        "hash": "dNzbH2+9SdWzHuqoUO7MvGElDdLzzwHQfL1QhBrCGOdkv+eBzt8WVjaZPbVH/HxhJ69eOa74iU883cQ0MB5hPJDXu3HFM7e3vFt7WLlUIg2ZHEd9DGExxDsUTJ1Xhy2C0OgEgY1sNrFDE2bZTmilkpuPGn4493lFnNB4rR7iKCE="
    }
}